{
  "dominios":[
    {
      "tip":"d",
      "nom":"Preparación para el aprendizaje de los estudiantes",
      "competencias":[
        {
          "tip":"c",
          "nom":"Conoce y comprende las características de todos sus estudiantes y sus contextos, los contenidos disciplinares que enseña, los enfoques y procesos pedagógicos, con el propósito de promover capacidades de alto nivel y su formación integral.",
          "inds":[
            {
              "nom":"Demuestra conocimientos actualizados y comprensión de los conceptos fundamentales de las disciplinas comprendidas en el área curricular que enseña.",
              "des":"descripcion",
              "doc":"Planificacion Curricular"
            },
            {
              "nom":"Demuestra conocimiento actualizado y comprensión de las teorías y prácticas pedagógicas y de la didáctica de las áreas que enseña.",
              "des":"descripcion",
              "doc":"Planificacion Curricular"
            }
          ]
        },
        {
          "tip":"c",
          "nom":"Planifica la enseñanza de forma colegiada garantizando la coherencia entre los aprendizajes que quiere lograr en sus estudiantes, el proceso pedagógico el uso de los recursos disponibles y la evaluación, en una programación curricular en permanente revisión",
          "inds":[
            {
              "nom":"Elabora la programación curricular analizando con sus compañeros el plan más pertinente a la realidad de su aula, articulando de manera coherente los aprendizajes que se promueven, las características de los estudiantes y las estrategias y medios seleccionados",
              "des":"descripcion",
              "doc":"Planificacion Curricular"
            },
            {
              "nom":"Diseña creativamente procesos pedagógicos capaces de despertar curiosidad, interés y compromiso en los estudiantes, para el logro de los aprendizajes previstos.",
              "des":"descripcion",
              "doc":"Planificacion Curricular"
            }
          ]
        }
      ]
    },
    {
      "tip":"d",
      "nom":"Enseñanza para el aprendizaje de los estudiantes",
      "competencias":[
        {
          "tip":"c",
          "nom":"Crea un clima propicio para el aprendizaje, la convivencia democrática y la vivencia de la diversidad en todas sus expresiones con miras a formar ciudadanos críticos e interculturales.",
          "inds":[
            {
              "nom":"Resuelve conflictos en diálogo con los estudiantes en base a criterios éticos, normas concertadas de convivencia, códigos culturales, y mecanismos pacíficos.",
              "des":"descripcion",
              "doc":"Planificacion Curricular"
            },
            {
              "nom":"Organiza el aula y otros espacios de forma segura, accesible y adecuada para el trabajo pedagógico y el aprendizaje, atendiendo a la diversidad.",
              "des":"descripcion",
              "doc":"Planificacion Curricular"
            }
          ]
        },
        {
          "tip":"c",
          "nom":"Conduce el proceso de enseñanza con dominio de los contenidos disciplinares y el uso de estrategias y recursos pertinentes, para que todos los estudiantes aprendan de manera reflexiva y crítica en torno a la solución de problemas relacionados con sus experiencias, intereses y contextos.",
          "inds":[
            {
              "nom":"Propicia oportunidades para que los estudiantes utilicen los conocimientos en la solución de problemas reales con una actitud reflexiva y crítica.",
              "des":"descripcion",
              "doc":"Planificacion Curricular"
            },
            {
              "nom":"Utiliza recursos tecnológicos diversos y accesibles en el tiempo requerido y al propósito de la sesión de aprendizaje",
              "des":"descripcion",
              "doc":"Planificacion Curricular"
            },
            {
              "nom":"Maneja diversas estrategias pedagógicas para atender de manera individualizada a los estudiantes con necesidades educativas especiales",
              "des":"descripcion",
              "doc":"Planificacion Curricular"
            }
          ]
        },
        {
          "tip":"c",
          "nom":"Evalúa permanentemente el aprendizaje de acuerdo a los objetivos institucionales previstos, para tomar decisiones y retroalimentar a sus estudiantes y a la comunidad educativa, teniendo en cuenta las diferencias individuales y contextos culturales",
          "inds":[
            {
              "nom":"Utiliza diversos métodos y técnicas que permiten evaluar en forma diferenciada los aprendizajes esperados, de acuerdo al estilo de aprendizaje de los estudiantes.",
              "des":"descripcion",
              "doc":"Planificacion Curricular"
            },
            {
              "nom":"Sistematiza los resultados obtenidos en las evaluaciones para la toma de decisiones y la retroalimentación oportuna.",
              "des":"descripcion",
              "doc":"Planificacion Curricular"
            },
            {
              "nom":"Evalúa los aprendizajes de todos los estudiantes en función de criterios previamente establecidos, superando prácticas de abuso de poder",
              "des":"descripcion",
              "doc":"Planificacion Curricular"
            }
          ]
        }
      ]
    },
    {
      "tip":"d",
      "nom":"Participación en la gestión de la escuela articulada a la comunidad",
      "competencias":[
        {
          "tip":"c",
          "nom":"Participa activamente con actitud democrática, crítica y colaborativa en la gestión de la escuela, contribuyendo a la construcción y mejora continua del proyecto educativo institucional que genere aprendizajes de calidad.",
          "inds":[
            {
              "nom":"Interactúa con sus pares, colaborativamente y con iniciativa, para intercambiar experiencias, organizar el trabajo pedagógico, mejorar la enseñanza y construir de manera sostenible un clima democrático en la escuela",
              "des":"descripcion",
              "doc":"Planificacion Curricular"
            },
            {
              "nom":"Desarrolla individual y colectivamente proyectos de investigación, innovación pedagógica y mejora de la calidad del servicio educativo de la escuela.",
              "des":"descripcion",
              "doc":"Planificacion Curricular"
            }
          ]
        },
        {
          "tip":"c",
          "nom":"Establece relaciones de respeto, colaboración y corresponsabilidad con las familias, la comunidad y otras instituciones del estado y la sociedad civil, aprovecha sus saberes y recursos en los procesos educativos y da cuenta de los resultados",
          "inds":[
            {
              "nom":"Fomenta respetuosamente el trabajo colaborativo con las familias en el aprendizaje de los estudiantes, reconociendo sus aportes.",
              "des":"descripcion",
              "doc":"Planificacion Curricular"
            },
            {
              "nom":"Integra críticamente en sus prácticas de enseñanza, los saberes culturales y los recursos de la comunidad y su entorno.",
              "des":"descripcion",
              "doc":"Planificacion Curricular"
            }
          ]
        }
      ]
    },
    {
      "tip":"d",
      "nom":"Desarrollo de la profesionalidad y la identidad docente",
      "competencias":[
        {
          "tip":"c",
          "nom":"Reflexiona sobre su práctica y experiencia institucional; y desarrolla procesos de aprendizaje continuo de modo individual y colectivo para construir y afirmar su identidad y responsabilidad profesional.",
          "inds":[
            {
              "nom":"Participa en experiencias significativas de desarrollo profesional, en concordancia con sus necesidades, las de los estudiantes y las de la escuela.",
              "des":"descripcion",
              "doc":"Planificacion Curricular"
            },
            {
              "nom":"Participa en la generación de políticas educativas de nivel local, regional y nacional, expresando una opinión informada y actualizada sobre ellas, en el marco de su trabajo profesional.",
              "des":"descripcion",
              "doc":"Planificacion Curricular"
            }
          ]
        },
        {
          "tip":"c",
          "nom":"Ejerce su profesión desde una ética de respeto a los derechos fundamentales de las personas, demostrando honestidad, justicia, responsabilidad y compromiso con su función social.",
          "inds":[
            {
              "nom":"Actúa de acuerdo a los principios de la ética profesional docente y resuelve dilemas prácticos y normativos de la vida escolar en base a ellos.",
              "des":"descripcion",
              "doc":"Planificacion Curricular"
            },
            {
              "nom":"Actúa y toma decisiones respetando los derechos humanos y el principio del bien superior del niño y el adolescente.",
              "des":"descripcion",
              "doc":"Planificacion Curricular"
            }
          ]
        }
      ]
    }
  ]
}